x1(t) = 1.3621 * x1(t-1) + -0.9159 * x1(t-2) + 0.0094 * x1(t-4) + 0.0019 * x2(t-1)*x3(t-5) + -0.0039 * x2(t-4)*x3(t-2) + e1(t)
x2(t) = 0.5009 * x1(t-2)*x1(t-2) + 0.0001 * x2(t-1)*x4(t-3) + 0.0042 * x3(t-1)*x5(t-4) + -0.0062 * x3(t-3)*x3(t-3) + 0.0042 * x3(t-5)*x5(t-3) + e2(t)
x3(t) = -0.3773 * x1(t-3) + -0.0322 * x3(t-3) + 0.0010 * x2(t-2)*x2(t-2) + 0.0048 * x3(t-4)*x5(t-5) + -0.0060 * x3(t-5)*x5(t-5) + e3(t)
x4(t) = 0.2876 * x4(t-1) + 0.2910 * x5(t-1) + 0.0484 * x5(t-2) + -0.4964 * x1(t-2)*x1(t-2) + -0.0336 * x1(t-3)*x1(t-3) + e4(t)
x5(t) = -0.3503 * x4(t-1) + 0.3574 * x5(t-1) + 0.0009 * x2(t-1)*x5(t-5) + -0.0005 * x2(t-3)*x4(t-5) + 0.0008 * x4(t-1)*x5(t-4) + e5(t)
